Processor/receiver.vcd
$date
	Tue Apr 16 20:45:29 2024
$end
$version
	Icarus Verilog
$end
$timescale
	100ps
$end
$scope module receiver_tb $end
$var wire 1 ! mem_ready $end
$var wire 32 " memWriteData [31:0] $end
$var wire 12 # memWriteAddr [11:0] $end
$var wire 64 $ bit [63:0] $end
$var reg 1 % BOOTLOADER_CLOCK $end
$var reg 1 & BOOTLOADER_PIN $end
$var reg 1 ' CPU_RESETN $end
$var reg 1 ( clock $end
$var integer 32 ) i [31:0] $end
$scope module bootloader $end
$var wire 12 * addr [11:0] $end
$var wire 1 + addr_update $end
$var wire 1 ( clk $end
$var wire 1 % dataOnPin $end
$var wire 1 & dataPin $end
$var wire 1 ! ready $end
$var wire 1 ' reset $end
$var wire 1 , update $end
$var wire 32 - out [31:0] $end
$var wire 32 . next_reg [31:0] $end
$var reg 12 / addr_val [11:0] $end
$var reg 5 0 counter_val [4:0] $end
$var reg 1 1 ready_val $end
$scope module out_reg $end
$var wire 1 % clk $end
$var wire 32 2 in [31:0] $end
$var wire 1 3 input_enable $end
$var wire 1 ' reset $end
$var wire 32 4 out [31:0] $end
$scope begin loop1[0] $end
$var parameter 2 5 c $end
$scope module dff $end
$var wire 1 % clk $end
$var wire 1 ' clr $end
$var wire 1 6 d $end
$var wire 1 3 en $end
$var reg 1 7 q $end
$upscope $end
$upscope $end
$scope begin loop1[1] $end
$var parameter 2 8 c $end
$scope module dff $end
$var wire 1 % clk $end
$var wire 1 ' clr $end
$var wire 1 9 d $end
$var wire 1 3 en $end
$var reg 1 : q $end
$upscope $end
$upscope $end
$scope begin loop1[2] $end
$var parameter 3 ; c $end
$scope module dff $end
$var wire 1 % clk $end
$var wire 1 ' clr $end
$var wire 1 < d $end
$var wire 1 3 en $end
$var reg 1 = q $end
$upscope $end
$upscope $end
$scope begin loop1[3] $end
$var parameter 3 > c $end
$scope module dff $end
$var wire 1 % clk $end
$var wire 1 ' clr $end
$var wire 1 ? d $end
$var wire 1 3 en $end
$var reg 1 @ q $end
$upscope $end
$upscope $end
$scope begin loop1[4] $end
$var parameter 4 A c $end
$scope module dff $end
$var wire 1 % clk $end
$var wire 1 ' clr $end
$var wire 1 B d $end
$var wire 1 3 en $end
$var reg 1 C q $end
$upscope $end
$upscope $end
$scope begin loop1[5] $end
$var parameter 4 D c $end
$scope module dff $end
$var wire 1 % clk $end
$var wire 1 ' clr $end
$var wire 1 E d $end
$var wire 1 3 en $end
$var reg 1 F q $end
$upscope $end
$upscope $end
$scope begin loop1[6] $end
$var parameter 4 G c $end
$scope module dff $end
$var wire 1 % clk $end
$var wire 1 ' clr $end
$var wire 1 H d $end
$var wire 1 3 en $end
$var reg 1 I q $end
$upscope $end
$upscope $end
$scope begin loop1[7] $end
$var parameter 4 J c $end
$scope module dff $end
$var wire 1 % clk $end
$var wire 1 ' clr $end
$var wire 1 K d $end
$var wire 1 3 en $end
$var reg 1 L q $end
$upscope $end
$upscope $end
$scope begin loop1[8] $end
$var parameter 5 M c $end
$scope module dff $end
$var wire 1 % clk $end
$var wire 1 ' clr $end
$var wire 1 N d $end
$var wire 1 3 en $end
$var reg 1 O q $end
$upscope $end
$upscope $end
$scope begin loop1[9] $end
$var parameter 5 P c $end
$scope module dff $end
$var wire 1 % clk $end
$var wire 1 ' clr $end
$var wire 1 Q d $end
$var wire 1 3 en $end
$var reg 1 R q $end
$upscope $end
$upscope $end
$scope begin loop1[10] $end
$var parameter 5 S c $end
$scope module dff $end
$var wire 1 % clk $end
$var wire 1 ' clr $end
$var wire 1 T d $end
$var wire 1 3 en $end
$var reg 1 U q $end
$upscope $end
$upscope $end
$scope begin loop1[11] $end
$var parameter 5 V c $end
$scope module dff $end
$var wire 1 % clk $end
$var wire 1 ' clr $end
$var wire 1 W d $end
$var wire 1 3 en $end
$var reg 1 X q $end
$upscope $end
$upscope $end
$scope begin loop1[12] $end
$var parameter 5 Y c $end
$scope module dff $end
$var wire 1 % clk $end
$var wire 1 ' clr $end
$var wire 1 Z d $end
$var wire 1 3 en $end
$var reg 1 [ q $end
$upscope $end
$upscope $end
$scope begin loop1[13] $end
$var parameter 5 \ c $end
$scope module dff $end
$var wire 1 % clk $end
$var wire 1 ' clr $end
$var wire 1 ] d $end
$var wire 1 3 en $end
$var reg 1 ^ q $end
$upscope $end
$upscope $end
$scope begin loop1[14] $end
$var parameter 5 _ c $end
$scope module dff $end
$var wire 1 % clk $end
$var wire 1 ' clr $end
$var wire 1 ` d $end
$var wire 1 3 en $end
$var reg 1 a q $end
$upscope $end
$upscope $end
$scope begin loop1[15] $end
$var parameter 5 b c $end
$scope module dff $end
$var wire 1 % clk $end
$var wire 1 ' clr $end
$var wire 1 c d $end
$var wire 1 3 en $end
$var reg 1 d q $end
$upscope $end
$upscope $end
$scope begin loop1[16] $end
$var parameter 6 e c $end
$scope module dff $end
$var wire 1 % clk $end
$var wire 1 ' clr $end
$var wire 1 f d $end
$var wire 1 3 en $end
$var reg 1 g q $end
$upscope $end
$upscope $end
$scope begin loop1[17] $end
$var parameter 6 h c $end
$scope module dff $end
$var wire 1 % clk $end
$var wire 1 ' clr $end
$var wire 1 i d $end
$var wire 1 3 en $end
$var reg 1 j q $end
$upscope $end
$upscope $end
$scope begin loop1[18] $end
$var parameter 6 k c $end
$scope module dff $end
$var wire 1 % clk $end
$var wire 1 ' clr $end
$var wire 1 l d $end
$var wire 1 3 en $end
$var reg 1 m q $end
$upscope $end
$upscope $end
$scope begin loop1[19] $end
$var parameter 6 n c $end
$scope module dff $end
$var wire 1 % clk $end
$var wire 1 ' clr $end
$var wire 1 o d $end
$var wire 1 3 en $end
$var reg 1 p q $end
$upscope $end
$upscope $end
$scope begin loop1[20] $end
$var parameter 6 q c $end
$scope module dff $end
$var wire 1 % clk $end
$var wire 1 ' clr $end
$var wire 1 r d $end
$var wire 1 3 en $end
$var reg 1 s q $end
$upscope $end
$upscope $end
$scope begin loop1[21] $end
$var parameter 6 t c $end
$scope module dff $end
$var wire 1 % clk $end
$var wire 1 ' clr $end
$var wire 1 u d $end
$var wire 1 3 en $end
$var reg 1 v q $end
$upscope $end
$upscope $end
$scope begin loop1[22] $end
$var parameter 6 w c $end
$scope module dff $end
$var wire 1 % clk $end
$var wire 1 ' clr $end
$var wire 1 x d $end
$var wire 1 3 en $end
$var reg 1 y q $end
$upscope $end
$upscope $end
$scope begin loop1[23] $end
$var parameter 6 z c $end
$scope module dff $end
$var wire 1 % clk $end
$var wire 1 ' clr $end
$var wire 1 { d $end
$var wire 1 3 en $end
$var reg 1 | q $end
$upscope $end
$upscope $end
$scope begin loop1[24] $end
$var parameter 6 } c $end
$scope module dff $end
$var wire 1 % clk $end
$var wire 1 ' clr $end
$var wire 1 ~ d $end
$var wire 1 3 en $end
$var reg 1 !" q $end
$upscope $end
$upscope $end
$scope begin loop1[25] $end
$var parameter 6 "" c $end
$scope module dff $end
$var wire 1 % clk $end
$var wire 1 ' clr $end
$var wire 1 #" d $end
$var wire 1 3 en $end
$var reg 1 $" q $end
$upscope $end
$upscope $end
$scope begin loop1[26] $end
$var parameter 6 %" c $end
$scope module dff $end
$var wire 1 % clk $end
$var wire 1 ' clr $end
$var wire 1 &" d $end
$var wire 1 3 en $end
$var reg 1 '" q $end
$upscope $end
$upscope $end
$scope begin loop1[27] $end
$var parameter 6 (" c $end
$scope module dff $end
$var wire 1 % clk $end
$var wire 1 ' clr $end
$var wire 1 )" d $end
$var wire 1 3 en $end
$var reg 1 *" q $end
$upscope $end
$upscope $end
$scope begin loop1[28] $end
$var parameter 6 +" c $end
$scope module dff $end
$var wire 1 % clk $end
$var wire 1 ' clr $end
$var wire 1 ," d $end
$var wire 1 3 en $end
$var reg 1 -" q $end
$upscope $end
$upscope $end
$scope begin loop1[29] $end
$var parameter 6 ." c $end
$scope module dff $end
$var wire 1 % clk $end
$var wire 1 ' clr $end
$var wire 1 /" d $end
$var wire 1 3 en $end
$var reg 1 0" q $end
$upscope $end
$upscope $end
$scope begin loop1[30] $end
$var parameter 6 1" c $end
$scope module dff $end
$var wire 1 % clk $end
$var wire 1 ' clr $end
$var wire 1 2" d $end
$var wire 1 3 en $end
$var reg 1 3" q $end
$upscope $end
$upscope $end
$scope begin loop1[31] $end
$var parameter 6 4" c $end
$scope module dff $end
$var wire 1 % clk $end
$var wire 1 ' clr $end
$var wire 1 5" d $end
$var wire 1 3 en $end
$var reg 1 6" q $end
$upscope $end
$upscope $end
$upscope $end
$upscope $end
$upscope $end
$enddefinitions $end
$comment Show the parameter values. $end
$dumpall
b11111 4"
b11110 1"
b11101 ."
b11100 +"
b11011 ("
b11010 %"
b11001 ""
b11000 }
b10111 z
b10110 w
b10101 t
b10100 q
b10011 n
b10010 k
b10001 h
b10000 e
b1111 b
b1110 _
b1101 \
b1100 Y
b1011 V
b1010 S
b1001 P
b1000 M
b111 J
b110 G
b101 D
b100 A
b11 >
b10 ;
b1 8
b0 5
$end
#0
$dumpvars
06"
15"
03"
02"
00"
0/"
0-"
0,"
0*"
0)"
0'"
0&"
0$"
0#"
0!"
0~
0|
0{
0y
0x
0v
0u
0s
0r
0p
0o
0m
0l
0j
0i
0g
0f
0d
0c
0a
0`
0^
0]
0[
0Z
0X
0W
0U
0T
0R
0Q
0O
0N
0L
0K
0I
0H
0F
0E
0C
0B
0@
0?
0=
0<
0:
09
07
06
b0 4
13
b10000000000000000000000000000000 2
01
b0 0
b0 /
b10000000000000000000000000000000 .
b0 -
0,
1+
b0 *
b0 )
x(
0'
1&
0%
b10111101111010000001111111111100101111000000000000000000000001 $
b0 #
b0 "
0!
$end
#100
12"
b11000000000000000000000000000000 .
b11000000000000000000000000000000 2
b10000000000000000000000000000000 "
b10000000000000000000000000000000 -
b10000000000000000000000000000000 4
16"
b1 0
1,
1%
#200
0,
0%
#300
05"
b1000000000000000000000000000000 .
b1000000000000000000000000000000 2
0&
b1 )
#400
1/"
02"
b100000000000000000000000000000 .
b100000000000000000000000000000 2
06"
b1000000000000000000000000000000 "
b1000000000000000000000000000000 -
b1000000000000000000000000000000 4
13"
b10 0
1,
1%
#500
0,
0%
#600
b10 )
#700
1,"
0/"
b10000000000000000000000000000 .
b10000000000000000000000000000 2
10"
b100000000000000000000000000000 "
b100000000000000000000000000000 -
b100000000000000000000000000000 4
03"
b11 0
1,
1%
#800
0,
0%
#900
b11 )
#1000
1)"
0,"
b1000000000000000000000000000 .
b1000000000000000000000000000 2
00"
b10000000000000000000000000000 "
b10000000000000000000000000000 -
b10000000000000000000000000000 4
1-"
b100 0
1,
1%
#1100
0,
0%
#1200
b100 )
#1300
1&"
0)"
b100000000000000000000000000 .
b100000000000000000000000000 2
1*"
b1000000000000000000000000000 "
b1000000000000000000000000000 -
b1000000000000000000000000000 4
0-"
b101 0
1,
1%
#1400
0,
0%
#1500
b101 )
#1600
1#"
0&"
b10000000000000000000000000 .
b10000000000000000000000000 2
0*"
b100000000000000000000000000 "
b100000000000000000000000000 -
b100000000000000000000000000 4
1'"
b110 0
1,
1%
#1700
0,
0%
#1800
b110 )
#1900
1~
0#"
b1000000000000000000000000 .
b1000000000000000000000000 2
1$"
b10000000000000000000000000 "
b10000000000000000000000000 -
b10000000000000000000000000 4
0'"
b111 0
1,
1%
#2000
0,
0%
#2100
b111 )
#2200
1{
0~
b100000000000000000000000 .
b100000000000000000000000 2
0$"
b1000000000000000000000000 "
b1000000000000000000000000 -
b1000000000000000000000000 4
1!"
b1000 0
1,
1%
#2300
0,
0%
#2400
b1000 )
#2500
1x
0{
b10000000000000000000000 .
b10000000000000000000000 2
1|
b100000000000000000000000 "
b100000000000000000000000 -
b100000000000000000000000 4
0!"
b1001 0
1,
1%
#2600
0,
0%
#2700
b1001 )
#2800
1u
0x
b1000000000000000000000 .
b1000000000000000000000 2
0|
b10000000000000000000000 "
b10000000000000000000000 -
b10000000000000000000000 4
1y
b1010 0
1,
1%
#2900
0,
0%
#3000
b1010 )
#3100
1r
0u
b100000000000000000000 .
b100000000000000000000 2
1v
b1000000000000000000000 "
b1000000000000000000000 -
b1000000000000000000000 4
0y
b1011 0
1,
1%
#3200
0,
0%
#3300
b1011 )
#3400
1o
0r
b10000000000000000000 .
b10000000000000000000 2
0v
b100000000000000000000 "
b100000000000000000000 -
b100000000000000000000 4
1s
b1100 0
1,
1%
#3500
0,
0%
#3600
b1100 )
#3700
1l
0o
b1000000000000000000 .
b1000000000000000000 2
1p
b10000000000000000000 "
b10000000000000000000 -
b10000000000000000000 4
0s
b1101 0
1,
1%
#3800
0,
0%
#3900
b1101 )
#4000
1i
0l
b100000000000000000 .
b100000000000000000 2
0p
b1000000000000000000 "
b1000000000000000000 -
b1000000000000000000 4
1m
b1110 0
1,
1%
#4100
0,
0%
#4200
b1110 )
#4300
1f
0i
b10000000000000000 .
b10000000000000000 2
1j
b100000000000000000 "
b100000000000000000 -
b100000000000000000 4
0m
b1111 0
1,
1%
#4400
0,
0%
#4500
b1111 )
#4600
1c
0f
b1000000000000000 .
b1000000000000000 2
0j
b10000000000000000 "
b10000000000000000 -
b10000000000000000 4
1g
b10000 0
1,
1%
#4700
0,
0%
#4800
b10000 )
#4900
1`
0c
b100000000000000 .
b100000000000000 2
1d
b1000000000000000 "
b1000000000000000 -
b1000000000000000 4
0g
b10001 0
1,
1%
#5000
0,
0%
#5100
b10001 )
#5200
1]
0`
b10000000000000 .
b10000000000000 2
0d
b100000000000000 "
b100000000000000 -
b100000000000000 4
1a
b10010 0
1,
1%
#5300
0,
0%
#5400
b10010 )
#5500
1Z
0]
b1000000000000 .
b1000000000000 2
1^
b10000000000000 "
b10000000000000 -
b10000000000000 4
0a
b10011 0
1,
1%
#5600
0,
0%
#5700
b10011 )
#5800
1W
0Z
b100000000000 .
b100000000000 2
0^
b1000000000000 "
b1000000000000 -
b1000000000000 4
1[
b10100 0
1,
1%
#5900
0,
0%
#6000
b10100 )
#6100
1T
0W
b10000000000 .
b10000000000 2
1X
b100000000000 "
b100000000000 -
b100000000000 4
0[
b10101 0
1,
1%
#6200
0,
0%
#6300
b10101 )
#6400
1Q
0T
b1000000000 .
b1000000000 2
0X
b10000000000 "
b10000000000 -
b10000000000 4
1U
b10110 0
1,
1%
#6500
0,
0%
#6600
b10110 )
#6700
1N
0Q
b100000000 .
b100000000 2
1R
b1000000000 "
b1000000000 -
b1000000000 4
0U
b10111 0
1,
1%
#6800
0,
0%
#6900
b10111 )
#7000
1K
0N
b10000000 .
b10000000 2
0R
b100000000 "
b100000000 -
b100000000 4
1O
b11000 0
1,
1%
#7100
0,
0%
#7200
15"
b10000000000000000000000010000000 .
b10000000000000000000000010000000 2
1&
b11000 )
#7300
1H
0K
12"
b11000000000000000000000001000000 .
b11000000000000000000000001000000 2
1L
0O
b10000000000000000000000010000000 "
b10000000000000000000000010000000 -
b10000000000000000000000010000000 4
16"
b11001 0
1,
1%
#7400
0,
0%
#7500
b11001 )
#7600
1E
0H
1/"
b11100000000000000000000000100000 .
b11100000000000000000000000100000 2
13"
0L
b11000000000000000000000001000000 "
b11000000000000000000000001000000 -
b11000000000000000000000001000000 4
1I
b11010 0
1,
1%
#7700
0,
0%
#7800
b11010 )
#7900
1B
0E
1,"
b11110000000000000000000000010000 .
b11110000000000000000000000010000 2
1F
0I
b11100000000000000000000000100000 "
b11100000000000000000000000100000 -
b11100000000000000000000000100000 4
10"
b11011 0
1,
1%
#8000
0,
0%
#8100
b11011 )
#8200
1?
0B
1)"
b11111000000000000000000000001000 .
b11111000000000000000000000001000 2
1-"
0F
b11110000000000000000000000010000 "
b11110000000000000000000000010000 -
b11110000000000000000000000010000 4
1C
b11100 0
1,
1%
#8300
0,
0%
#8400
05"
b1111000000000000000000000001000 .
b1111000000000000000000000001000 2
0&
b11100 )
#8500
1<
0?
1&"
02"
b111100000000000000000000000100 .
b111100000000000000000000000100 2
1@
0C
1*"
b1111000000000000000000000001000 "
b1111000000000000000000000001000 -
b1111000000000000000000000001000 4
06"
b11101 0
1,
1%
#8600
0,
0%
#8700
15"
b10111100000000000000000000000100 .
b10111100000000000000000000000100 2
1&
b11101 )
#8800
19
0<
1#"
0/"
12"
b11011110000000000000000000000010 .
b11011110000000000000000000000010 2
16"
03"
1'"
0@
b10111100000000000000000000000100 "
b10111100000000000000000000000100 -
b10111100000000000000000000000100 4
1=
b11110 0
1,
1%
#8900
0,
0%
#9000
05"
b1011110000000000000000000000010 .
b1011110000000000000000000000010 2
0&
b11110 )
#9100
16
09
1~
0,"
1/"
02"
b101111000000000000000000000001 .
b101111000000000000000000000001 2
1:
0=
1$"
00"
13"
b1011110000000000000000000000010 "
b1011110000000000000000000000010 -
b1011110000000000000000000000010 4
06"
b11111 0
1,
1%
#9200
0,
0%
#9300
b11111 )
#9400
06
1{
0)"
1,"
0/"
b10111100000000000000000000000 .
b10111100000000000000000000000 2
03"
10"
0-"
1!"
0:
b101111000000000000000000000001 "
b101111000000000000000000000001 -
b101111000000000000000000000001 4
17
0+
1!
11
b0 0
1,
1%
#9500
0,
0%
#9600
15"
b10010111100000000000000000000000 .
b10010111100000000000000000000000 2
1&
b100000 )
#9700
1x
0&"
1)"
0,"
12"
b11001011110000000000000000000000 .
b11001011110000000000000000000000 2
b1 #
b1 *
b1 /
07
1|
0*"
1-"
00"
b10010111100000000000000000000000 "
b10010111100000000000000000000000 -
b10010111100000000000000000000000 4
16"
1+
0!
01
b1 0
1,
1%
#9800
0,
0%
#9900
b100001 )
#10000
1u
0#"
1&"
0)"
1/"
b11100101111000000000000000000000 .
b11100101111000000000000000000000 2
13"
0-"
1*"
0'"
b11001011110000000000000000000000 "
b11001011110000000000000000000000 -
b11001011110000000000000000000000 4
1y
b10 0
1,
1%
#10100
0,
0%
#10200
b100010 )
#10300
1r
0~
1#"
0&"
1,"
b11110010111100000000000000000000 .
b11110010111100000000000000000000 2
1v
0$"
1'"
0*"
b11100101111000000000000000000000 "
b11100101111000000000000000000000 -
b11100101111000000000000000000000 4
10"
b11 0
1,
1%
#10400
0,
0%
#10500
b100011 )
#10600
1o
0{
1~
0#"
1)"
b11111001011110000000000000000000 .
b11111001011110000000000000000000 2
1-"
0'"
1$"
0!"
b11110010111100000000000000000000 "
b11110010111100000000000000000000 -
b11110010111100000000000000000000 4
1s
b100 0
1,
1%
#10700
0,
0%
#10800
b100100 )
#10900
1l
0x
1{
0~
1&"
b11111100101111000000000000000000 .
b11111100101111000000000000000000 2
1p
0|
1!"
0$"
b11111001011110000000000000000000 "
b11111001011110000000000000000000 -
b11111001011110000000000000000000 4
1*"
b101 0
1,
1%
#11000
0,
0%
#11100
b100101 )
#11200
1i
0u
1x
0{
1#"
b11111110010111100000000000000000 .
b11111110010111100000000000000000 2
1'"
0!"
1|
0y
b11111100101111000000000000000000 "
b11111100101111000000000000000000 -
b11111100101111000000000000000000 4
1m
b110 0
1,
1%
#11300
0,
0%
#11400
b100110 )
#11500
1f
0r
1u
0x
1~
b11111111001011110000000000000000 .
b11111111001011110000000000000000 2
1j
0v
1y
0|
b11111110010111100000000000000000 "
b11111110010111100000000000000000 -
b11111110010111100000000000000000 4
1$"
b111 0
1,
1%
#11600
0,
0%
#11700
b100111 )
#11800
1c
0o
1r
0u
1{
b11111111100101111000000000000000 .
b11111111100101111000000000000000 2
1!"
0y
1v
0s
b11111111001011110000000000000000 "
b11111111001011110000000000000000 -
b11111111001011110000000000000000 4
1g
b1000 0
1,
1%
#11900
0,
0%
#12000
b101000 )
#12100
1`
0l
1o
0r
1x
b11111111110010111100000000000000 .
b11111111110010111100000000000000 2
1d
0p
1s
0v
b11111111100101111000000000000000 "
b11111111100101111000000000000000 -
b11111111100101111000000000000000 4
1|
b1001 0
1,
1%
#12200
0,
0%
#12300
b101001 )
#12400
1]
0i
1l
0o
1u
b11111111111001011110000000000000 .
b11111111111001011110000000000000 2
1y
0s
1p
0m
b11111111110010111100000000000000 "
b11111111110010111100000000000000 -
b11111111110010111100000000000000 4
1a
b1010 0
1,
1%
#12500
0,
0%
#12600
b101010 )
#12700
1Z
0f
1i
0l
1r
b11111111111100101111000000000000 .
b11111111111100101111000000000000 2
1^
0j
1m
0p
b11111111111001011110000000000000 "
b11111111111001011110000000000000 -
b11111111111001011110000000000000 4
1v
b1011 0
1,
1%
#12800
0,
0%
#12900
05"
b1111111111100101111000000000000 .
b1111111111100101111000000000000 2
0&
b101011 )
#13000
1W
0c
1f
0i
1o
02"
b111111111110010111100000000000 .
b111111111110010111100000000000 2
06"
1s
0m
1j
0g
b1111111111100101111000000000000 "
b1111111111100101111000000000000 -
b1111111111100101111000000000000 4
1[
b1100 0
1,
1%
#13100
0,
0%
#13200
b101100 )
#13300
1T
0`
1c
0f
1l
0/"
b11111111111001011110000000000 .
b11111111111001011110000000000 2
1X
0d
1g
0j
1p
b111111111110010111100000000000 "
b111111111110010111100000000000 -
b111111111110010111100000000000 4
03"
b1101 0
1,
1%
#13400
0,
0%
#13500
b101101 )
#13600
1Q
0]
1`
0c
1i
0,"
b1111111111100101111000000000 .
b1111111111100101111000000000 2
00"
1m
0g
1d
0a
b11111111111001011110000000000 "
b11111111111001011110000000000 -
b11111111111001011110000000000 4
1U
b1110 0
1,
1%
#13700
0,
0%
#13800
b101110 )
#13900
1N
0Z
1]
0`
1f
0)"
b111111111110010111100000000 .
b111111111110010111100000000 2
1R
0^
1a
0d
1j
b1111111111100101111000000000 "
b1111111111100101111000000000 -
b1111111111100101111000000000 4
0-"
b1111 0
1,
1%
#14000
0,
0%
#14100
b101111 )
#14200
1K
0W
1Z
0]
1c
0&"
b11111111111001011110000000 .
b11111111111001011110000000 2
0*"
1g
0a
1^
0[
b111111111110010111100000000 "
b111111111110010111100000000 -
b111111111110010111100000000 4
1O
b10000 0
1,
1%
#14300
0,
0%
#14400
b110000 )
#14500
1H
0T
1W
0Z
1`
0#"
b1111111111100101111000000 .
b1111111111100101111000000 2
1L
0X
1[
0^
1d
b11111111111001011110000000 "
b11111111111001011110000000 -
b11111111111001011110000000 4
0'"
b10001 0
1,
1%
#14600
0,
0%
#14700
15"
b10000001111111111100101111000000 .
b10000001111111111100101111000000 2
1&
b110001 )
#14800
1E
0Q
1T
0W
1]
0~
12"
b11000000111111111110010111100000 .
b11000000111111111110010111100000 2
16"
0$"
1a
0[
1X
0U
b10000001111111111100101111000000 "
b10000001111111111100101111000000 -
b10000001111111111100101111000000 4
1I
b10010 0
1,
1%
#14900
0,
0%
#15000
05"
b1000000111111111110010111100000 .
b1000000111111111110010111100000 2
0&
b110010 )
#15100
1B
0N
1Q
0T
1Z
0{
1/"
02"
b100000011111111111001011110000 .
b100000011111111111001011110000 2
1F
0R
1U
0X
1^
0!"
13"
b1000000111111111110010111100000 "
b1000000111111111110010111100000 -
b1000000111111111110010111100000 4
06"
b10011 0
1,
1%
#15200
0,
0%
#15300
15"
b10100000011111111111001011110000 .
b10100000011111111111001011110000 2
1&
b110011 )
#15400
1?
0K
1N
0Q
1W
0x
1,"
0/"
12"
b11010000001111111111100101111000 .
b11010000001111111111100101111000 2
16"
03"
10"
0|
1[
0U
1R
0O
b10100000011111111111001011110000 "
b10100000011111111111001011110000 -
b10100000011111111111001011110000 4
1C
b10100 0
1,
1%
#15500
0,
0%
#15600
b110100 )
#15700
1<
0H
1K
0N
1T
0u
1)"
0,"
1/"
b11101000000111111111110010111100 .
b11101000000111111111110010111100 2
1@
0L
1O
0R
1X
0y
1-"
00"
b11010000001111111111100101111000 "
b11010000001111111111100101111000 -
b11010000001111111111100101111000 4
13"
b10101 0
1,
1%
#15800
0,
0%
#15900
b110101 )
#16000
19
0E
1H
0K
1Q
0r
1&"
0)"
1,"
b11110100000011111111111001011110 .
b11110100000011111111111001011110 2
10"
0-"
1*"
0v
1U
0O
1L
0I
b11101000000111111111110010111100 "
b11101000000111111111110010111100 -
b11101000000111111111110010111100 4
1=
b10110 0
1,
1%
#16100
0,
0%
#16200
b110110 )
#16300
16
0B
1E
0H
1N
0o
1#"
0&"
1)"
b11111010000001111111111100101111 .
b11111010000001111111111100101111 2
1:
0F
1I
0L
1R
0s
1'"
0*"
b11110100000011111111111001011110 "
b11110100000011111111111001011110 -
b11110100000011111111111001011110 4
1-"
b10111 0
1,
1%
#16400
0,
0%
#16500
05"
b1111010000001111111111100101111 .
b1111010000001111111111100101111 2
0&
b110111 )
#16600
0?
1B
0E
1K
0l
1~
0#"
1&"
02"
b111101000000111111111110010111 .
b111101000000111111111110010111 2
06"
1*"
0'"
1$"
0p
1O
0I
1F
0C
b1111010000001111111111100101111 "
b1111010000001111111111100101111 -
b1111010000001111111111100101111 4
17
b11000 0
1,
1%
#16700
0,
0%
#16800
15"
b10111101000000111111111110010111 .
b10111101000000111111111110010111 2
1&
b111000 )
#16900
0<
1?
0B
1H
0i
1{
0~
1#"
0/"
12"
b11011110100000011111111111001011 .
b11011110100000011111111111001011 2
0@
1C
0F
1L
0m
1!"
0$"
1'"
03"
b10111101000000111111111110010111 "
b10111101000000111111111110010111 -
b10111101000000111111111110010111 4
16"
b11001 0
1,
1%
#17000
0,
0%
#17100
b111001 )
#17200
09
1<
0?
1E
0f
1x
0{
1~
0,"
1/"
b11101111010000001111111111100101 .
b11101111010000001111111111100101 2
13"
00"
1$"
0!"
1|
0j
1I
0C
1@
b11011110100000011111111111001011 "
b11011110100000011111111111001011 -
b11011110100000011111111111001011 4
0=
b11010 0
1,
1%
#17300
0,
0%
#17400
b111010 )
#17500
06
19
0<
1B
0c
1u
0x
1{
0)"
1,"
b11110111101000000111111111110010 .
b11110111101000000111111111110010 2
0:
1=
0@
1F
0g
1y
0|
1!"
0-"
b11101111010000001111111111100101 "
b11101111010000001111111111100101 -
b11101111010000001111111111100101 4
10"
b11011 0
1,
1%
#17600
0,
0%
#17700
b111011 )
#17800
16
09
1?
0`
1r
0u
1x
0&"
1)"
b11111011110100000011111111111001 .
b11111011110100000011111111111001 2
1-"
0*"
1|
0y
1v
0d
1C
0=
1:
b11110111101000000111111111110010 "
b11110111101000000111111111110010 -
b11110111101000000111111111110010 4
07
b11100 0
1,
1%
#17900
0,
0%
#18000
05"
b1111011110100000011111111111001 .
b1111011110100000011111111111001 2
0&
b111100 )
#18100
06
1<
0]
1o
0r
1u
0#"
1&"
02"
b111101111010000001111111111100 .
b111101111010000001111111111100 2
17
0:
1@
0a
1s
0v
1y
0'"
1*"
b1111011110100000011111111111001 "
b1111011110100000011111111111001 -
b1111011110100000011111111111001 4
06"
b11101 0
1,
1%
#18200
0,
0%
#18300
15"
b10111101111010000001111111111100 .
b10111101111010000001111111111100 2
1&
b111101 )
#18400
19
0Z
1l
0o
1r
0~
1#"
0/"
12"
b11011110111101000000111111111110 .
b11011110111101000000111111111110 2
16"
03"
1'"
0$"
1v
0s
1p
0^
1=
b10111101111010000001111111111100 "
b10111101111010000001111111111100 -
b10111101111010000001111111111100 4
07
b11110 0
1,
1%
#18500
0,
0%
#18600
05"
b1011110111101000000111111111110 .
b1011110111101000000111111111110 2
0&
b111110 )
#18700
16
0W
1i
0l
1o
0{
1~
0,"
1/"
02"
b101111011110100000011111111111 .
b101111011110100000011111111111 2
1:
0[
1m
0p
1s
0!"
1$"
00"
13"
b1011110111101000000111111111110 "
b1011110111101000000111111111110 -
b1011110111101000000111111111110 4
06"
b11111 0
1,
1%
#18800
0,
0%
#18900
b111111 )
#19000
0T
1f
0i
1l
0x
1{
0)"
1,"
0/"
b10111101111010000001111111111 .
b10111101111010000001111111111 2
03"
10"
0-"
1!"
0|
1p
0m
1j
0X
b101111011110100000011111111111 "
b101111011110100000011111111111 -
b101111011110100000011111111111 4
17
0+
1!
11
b0 0
1,
1%
#19100
0,
0%
#19200
06
09
0<
0?
0B
0E
0H
0K
0N
0Q
0f
0l
0o
0r
0u
0{
0~
0#"
0&"
0,"
b0 .
b0 2
b111111111111 #
b111111111111 *
b111111111111 /
07
0:
0=
0@
0C
0F
0I
0L
0O
0R
0U
0j
0p
0s
0v
0y
0!"
0$"
0'"
0*"
b0 "
b0 -
b0 4
00"
0!
01
1,
1+
1'
b1000000 )
#19600
0,
0'
#20000
15"
b10000000000000000000000000000000 .
b10000000000000000000000000000000 2
1&
b0 )
#20100
12"
b11000000000000000000000000000000 .
b11000000000000000000000000000000 2
b10000000000000000000000000000000 "
b10000000000000000000000000000000 -
b10000000000000000000000000000000 4
16"
b1 0
1,
1%
#20200
0,
0%
#20300
05"
b1000000000000000000000000000000 .
b1000000000000000000000000000000 2
0&
b1 )
#20400
1/"
02"
b100000000000000000000000000000 .
b100000000000000000000000000000 2
13"
b1000000000000000000000000000000 "
b1000000000000000000000000000000 -
b1000000000000000000000000000000 4
06"
b10 0
1,
1%
#20500
0,
0%
#20600
b10 )
#20700
1,"
0/"
b10000000000000000000000000000 .
b10000000000000000000000000000 2
03"
b100000000000000000000000000000 "
b100000000000000000000000000000 -
b100000000000000000000000000000 4
10"
b11 0
1,
1%
#20800
0,
0%
#20900
b11 )
#21000
1)"
0,"
b1000000000000000000000000000 .
b1000000000000000000000000000 2
1-"
b10000000000000000000000000000 "
b10000000000000000000000000000 -
b10000000000000000000000000000 4
00"
b100 0
1,
1%
#21100
0,
0%
#21200
b100 )
#21300
1&"
0)"
b100000000000000000000000000 .
b100000000000000000000000000 2
0-"
b1000000000000000000000000000 "
b1000000000000000000000000000 -
b1000000000000000000000000000 4
1*"
b101 0
1,
1%
#21400
0,
0%
#21500
b101 )
#21600
1#"
0&"
b10000000000000000000000000 .
b10000000000000000000000000 2
1'"
b100000000000000000000000000 "
b100000000000000000000000000 -
b100000000000000000000000000 4
0*"
b110 0
1,
1%
#21700
0,
0%
#21800
b110 )
